Data manipulation with dplyr
…
This dataset contains data from an experiment on the cold tolerance of the grass species Echinochloa crus-galli. The CO2 uptake of six plants from Quebec and six plants from Mississippi was measured at several levels of ambient CO2 concentration. Half the plants of each type were chilled overnight before the experiment was conducted.

Messages from tidylog

To assist in learning dplyr (and more packages coming soon), we will also be using the (pre-installed for you) library, tidylog. As you can see in the setup R chunk of this document, tidylog has been loaded for you. This fairly amazing library provides you with direct feedback about what goes on under the hood of tidyverse operations.

## Obtain all rows where the plant is from Quebec
CO2_tibble %>%
  filter(Type == "Quebec")

## filter: removed 42 rows (50%), 42 rows remaining

## # A tibble: 42 x 5
##    Plant Type   Treatment   conc uptake
##    <ord> <fct>  <fct>      <dbl>  <dbl>
##  1 Qn1   Quebec nonchilled    95   16  
##  2 Qn1   Quebec nonchilled   175   30.4
##  3 Qn1   Quebec nonchilled   250   34.8
##  4 Qn1   Quebec nonchilled   350   37.2
##  5 Qn1   Quebec nonchilled   500   35.3
##  6 Qn1   Quebec nonchilled   675   39.2
##  7 Qn1   Quebec nonchilled  1000   39.7
##  8 Qn2   Quebec nonchilled    95   13.6
##  9 Qn2   Quebec nonchilled   175   27.3
## 10 Qn2   Quebec nonchilled   250   37.1
## #  with 32 more rows
…
In addition, for any tasks which require multiple steps (a chain of dplyr commands), YOU REALLY REALLY REALLY SHOULD to do each step one at a time, examine its output, and then proceed to tack on the next step.

Question 1

Subset the data using filter() to contain only observations (rows) from Mississippi (Hint: make sure to spell it right!).

#Only observations row of Mississippi
# data + pipe + enter + filter + type + == + "Mississippi" 
CO2_tibble %>% 
  #filter:Select rows by matching column criteria.
  filter(Type=="Mississippi")

## filter: removed 42 rows (50%), 42 rows remaining

## # A tibble: 42 x 5
##    Plant Type        Treatment   conc uptake
##    <ord> <fct>       <fct>      <dbl>  <dbl>
##  1 Mn1   Mississippi nonchilled    95   10.6
##  2 Mn1   Mississippi nonchilled   175   19.2
##  3 Mn1   Mississippi nonchilled   250   26.2
##  4 Mn1   Mississippi nonchilled   350   30  
##  5 Mn1   Mississippi nonchilled   500   30.9
##  6 Mn1   Mississippi nonchilled   675   32.4
##  7 Mn1   Mississippi nonchilled  1000   35.5
##  8 Mn2   Mississippi nonchilled    95   12  
##  9 Mn2   Mississippi nonchilled   175   22  
## 10 Mn2   Mississippi nonchilled   250   30.6
## #  with 32 more rows

Question 2

Subset the data using filter() to contain only observations from Mississippi exposed to chilled environment. Hint: You can provide multiple logical statements to filter() simply by separating them by commas. (This is assumed to mean BOTH conditions are true, i.e. logical and).

#only obsercations from Mississippi exposed to chilled environment 
# data + pipe + enter 
CO2_tibble %>%
  #+ filter + type + == + "Mississippi" + Treatment + == + "chilled
  #filter:Select rows by matching column criteria.
  filter(Type=="Mississippi", Treatment== "chilled")

## filter: removed 63 rows (75%), 21 rows remaining

## # A tibble: 21 x 5
##    Plant Type        Treatment  conc uptake
##    <ord> <fct>       <fct>     <dbl>  <dbl>
##  1 Mc1   Mississippi chilled      95   10.5
##  2 Mc1   Mississippi chilled     175   14.9
##  3 Mc1   Mississippi chilled     250   18.1
##  4 Mc1   Mississippi chilled     350   18.9
##  5 Mc1   Mississippi chilled     500   19.5
##  6 Mc1   Mississippi chilled     675   22.2
##  7 Mc1   Mississippi chilled    1000   21.9
##  8 Mc2   Mississippi chilled      95    7.7
##  9 Mc2   Mississippi chilled     175   11.4
## 10 Mc2   Mississippi chilled     250   12.3
## #  with 11 more rows
…
# data + pipe + enter + filter + type + == + "Mississippi" + Treatment + == + "chilled %>% + enter + select the only columns need
CO2_tibble %>%
  
  #filter:Select rows by matching column criteria.
  filter(Type=="Mississippi", Treatment== "chilled") %>%
  #Select columns by name or number.
  select(Plant, Type, Treatment) -> new_co2 #new column

## filter: removed 63 rows (75%), 21 rows remaining

## select: dropped 2 variables (conc, uptake)

print(new_co2)

## # A tibble: 21 x 3
##    Plant Type        Treatment
##    <ord> <fct>       <fct>    
##  1 Mc1   Mississippi chilled  
##  2 Mc1   Mississippi chilled  
##  3 Mc1   Mississippi chilled  
##  4 Mc1   Mississippi chilled  
##  5 Mc1   Mississippi chilled  
##  6 Mc1   Mississippi chilled  
##  7 Mc1   Mississippi chilled  
##  8 Mc2   Mississippi chilled  
##  9 Mc2   Mississippi chilled  
## 10 Mc2   Mississippi chilled  
## #  with 11 more rows

Question 4

Remove the columns uptake and conc from the data using select(). In your code, refer only to these two column names - NOT Plant, Type, etc. (Hint: you can SUBTRACT columns to remove them!)

#Always use a data and pipe. Not this | this %>%
CO2_tibble %>%
  #the minus sign is subtracting the remove
  select(-uptake,-conc)

## select: dropped 2 variables (conc, uptake)

## # A tibble: 84 x 3
##    Plant Type   Treatment 
##    <ord> <fct>  <fct>     
##  1 Qn1   Quebec nonchilled
##  2 Qn1   Quebec nonchilled
##  3 Qn1   Quebec nonchilled
##  4 Qn1   Quebec nonchilled
##  5 Qn1   Quebec nonchilled
##  6 Qn1   Quebec nonchilled
##  7 Qn1   Quebec nonchilled
##  8 Qn2   Quebec nonchilled
##  9 Qn2   Quebec nonchilled
## 10 Qn2   Quebec nonchilled
## #  with 74 more rows
…
Question 7

Create a new column using mutate() called new_column where all rows have the value 5. You do NOT need to use quotes when writing the new column name!

#Data and pip. Not this | pipe
CO2_tibble %>%
  #making a new column called new_column
  mutate(new_column = 5)

## mutate: new variable 'new_column' with one unique value and 0% NA

## # A tibble: 84 x 6
##    Plant Type   Treatment   conc uptake new_column
##    <ord> <fct>  <fct>      <dbl>  <dbl>      <dbl>
##  1 Qn1   Quebec nonchilled    95   16            5
##  2 Qn1   Quebec nonchilled   175   30.4          5
##  3 Qn1   Quebec nonchilled   250   34.8          5
##  4 Qn1   Quebec nonchilled   350   37.2          5
##  5 Qn1   Quebec nonchilled   500   35.3          5
##  6 Qn1   Quebec nonchilled   675   39.2          5
##  7 Qn1   Quebec nonchilled  1000   39.7          5
##  8 Qn2   Quebec nonchilled    95   13.6          5
##  9 Qn2   Quebec nonchilled   175   27.3          5
## 10 Qn2   Quebec nonchilled   250   37.1          5
## #  with 74 more rows

Question 8

CO2 concentration in this dataset is measured in mL/L - lets change the units to cL/L (i.e.milli -> centi by dividing by 10). Create a new column using mutate() called conc_cLL using mutate() which contains the concentration measured in cL/L.

#data and the pipe. Remember not this |
CO2_tibble %>%
  #making a new column, and changing the units to the new column 
  mutate(conc_cLL = conc/10) -> new_conc

## mutate: new variable 'conc_cLL' with 7 unique values and 0% NA

print(new_conc)

## # A tibble: 84 x 6
##    Plant Type   Treatment   conc uptake conc_cLL
##    <ord> <fct>  <fct>      <dbl>  <dbl>    <dbl>
##  1 Qn1   Quebec nonchilled    95   16        9.5
##  2 Qn1   Quebec nonchilled   175   30.4     17.5
##  3 Qn1   Quebec nonchilled   250   34.8     25  
##  4 Qn1   Quebec nonchilled   350   37.2     35  
##  5 Qn1   Quebec nonchilled   500   35.3     50  
##  6 Qn1   Quebec nonchilled   675   39.2     67.5
##  7 Qn1   Quebec nonchilled  1000   39.7    100  
##  8 Qn2   Quebec nonchilled    95   13.6      9.5
##  9 Qn2   Quebec nonchilled   175   27.3     17.5
## 10 Qn2   Quebec nonchilled   250   37.1     25  
## #  with 74 more rows
…
quebec %>%
  # group the uptake
  group_by(uptake) %>%
  #filtered the column 25-500
  filter(uptake >= 25, uptake <= 500) %>%
  #tally is Wrapper around dplyr::summarize and related functions that prints information about the operation
  tally()

## group_by: one grouping variable (uptake)

## filter (grouped): removed 8 rows (19%), 34 rows remaining

## tally: now 32 rows and 2 columns, ungrouped

## # A tibble: 32 x 2
##    uptake     n
##     <dbl> <int>
##  1   27.3     2
##  2   30.3     1
##  3   30.4     1
##  4   32.4     1
##  5   32.5     1
##  6   34       1
##  7   34.6     1
##  8   34.8     1
##  9   35       1
## 10   35.3     1
## #  with 22 more rows

Question 13

Lets now compare plants from Mississippi to those from Quebec in one chain of piped commands: Which plant type has a higher mean uptake, considering only nonchilled plants exposed to a concentration of 1000 mL/L?

CO2_tibble %>%
  #filter + new column name = mean + exposed to a conc 1000
  filter(Treatment == "nonchilled", mean(uptake <= 1000)) %>%
  group_by(Type)

## filter: removed 42 rows (50%), 42 rows remaining

## group_by: one grouping variable (Type)

## # A tibble: 42 x 5
## # Groups:   Type [2]
##    Plant Type   Treatment   conc uptake
##    <ord> <fct>  <fct>      <dbl>  <dbl>
##  1 Qn1   Quebec nonchilled    95   16  
##  2 Qn1   Quebec nonchilled   175   30.4
##  3 Qn1   Quebec nonchilled   250   34.8
##  4 Qn1   Quebec nonchilled   350   37.2
##  5 Qn1   Quebec nonchilled   500   35.3
##  6 Qn1   Quebec nonchilled   675   39.2
##  7 Qn1   Quebec nonchilled  1000   39.7
##  8 Qn2   Quebec nonchilled    95   13.6
##  9 Qn2   Quebec nonchilled   175   27.3
## 10 Qn2   Quebec nonchilled   250   37.1
## #  with 32 more rows
…
