Data manipulation with dplyr II
…
## This code chunk should read in, save, print the datasets only

#it is making a variable for algae_lowtide 
low <- read_csv(paste0(path_to_data, "algae_lowtide.csv"))

## Parsed with column specification:
## cols(
##   herbivores = col_character(),
##   area = col_double()
## )

#printing the variable in the knit
low

## # A tibble: 32 x 2
##    herbivores  area
##    <chr>      <dbl>
##  1 no          9.41
##  2 no         34.5 
##  3 no         46.7 
##  4 no         16.6 
##  5 no         24.4 
##  6 no         38.4 
##  7 no         33.8 
##  8 no         61.1 
##  9 no         35.5 
## 10 no         46.2 
## #  with 22 more rows

#it is making a variable for the algae_hightide
high <- read_csv(paste0(path_to_data, "algae_hightide.csv"))

## Parsed with column specification:
## cols(
##   herbivores = col_character(),
##   area = col_double()
## )

#printing the variable in the knit
high

## # A tibble: 32 x 2
##    herbivores   area
##    <chr>       <dbl>
##  1 no          0.707
##  2 no         25.0  
##  3 no         46.6  
##  4 no          0.707
##  5 no          5.14 
##  6 no          6.18 
##  7 no         47.0  
##  8 no         22.9  
##  9 no         19.4  
## 10 no         37.1  
## #  with 22 more rows

## This code chunk should perform the analysis, and export the final CSV
#dataset + pipe + mutate the low column
low %>%
  mutate(tide = "low") ->low_newtide_column

## mutate: new variable 'tide' with one unique value and 0% NA

#showing the variable
low_newtide_column

## # A tibble: 32 x 3
##    herbivores  area tide 
##    <chr>      <dbl> <chr>
##  1 no          9.41 low  
##  2 no         34.5  low  
##  3 no         46.7  low  
##  4 no         16.6  low  
##  5 no         24.4  low  
##  6 no         38.4  low  
##  7 no         33.8  low  
##  8 no         61.1  low  
##  9 no         35.5  low  
## 10 no         46.2  low  
## #  with 22 more rows

#dataset + pipe + mutate the high column
high %>%
  mutate(tide = "high") ->high_newtide_column

## mutate: new variable 'tide' with one unique value and 0% NA

#showing the variable
high_newtide_column

## # A tibble: 32 x 3
##    herbivores   area tide 
##    <chr>       <dbl> <chr>
##  1 no          0.707 high 
##  2 no         25.0   high 
##  3 no         46.6   high 
##  4 no          0.707 high 
##  5 no          5.14  high 
##  6 no          6.18  high 
##  7 no         47.0   high 
##  8 no         22.9   high 
##  9 no         19.4   high 
## 10 no         37.1   high 
## #  with 22 more rows
…
#2.All rows with NA in the conservation column ONLY are removed, using drop_na(). The result will still have NAs, just not in this column.
#the data set piped into the drop_na function
msleep %>%
  #deleting the missing data in the conservation column
  drop_na(conservation) -> No_na_conservation

## drop_na: removed 29 rows (35%), 54 rows remaining

#showing the results
No_na_conservation

## # A tibble: 54 x 11
##    name  genus vore  order conservation sleep_total sleep_rem sleep_cycle awake
##    <chr> <chr> <chr> <chr> <chr>              <dbl>     <dbl>       <dbl> <dbl>
##  1 Chee Acin carni Carn lc                  12.1      NA        NA      11.9
##  2 Moun Aplo herbi Rode nt                  14.4       2.4      NA       9.6
##  3 Grea Blar omni  Sori lc                  14.9       2.3       0.133   9.1
##  4 Cow   Bos   herbi Arti domesticated         4         0.7       0.667  20  
##  5 Nort Call carni Carn vu                   8.7       1.4       0.383  15.3
##  6 Dog   Canis carni Carn domesticated        10.1       2.9       0.333  13.9
##  7 Roe  Capr herbi Arti lc                   3        NA        NA      21  
##  8 Goat  Capri herbi Arti lc                   5.3       0.6      NA      18.7
##  9 Guin Cavis herbi Rode domesticated         9.4       0.8       0.217  14.6
## 10 Griv Cerc omni  Prim lc                  10         0.7      NA      14  
## #  with 44 more rows, and 2 more variables: brainwt <dbl>, bodywt <dbl>

#3. All rows with NA in the brainwt column ONLY are removed, using drop_na(). The result will still have NAs, just not in this column.
#dataset piped into the drop_na function 
msleep %>%
  #deleting the missing data in the brainwt column
  drop_na(brainwt) -> No_na_brainwt

## drop_na: removed 27 rows (33%), 56 rows remaining

#showing the results
No_na_brainwt

## # A tibble: 56 x 11
##    name  genus vore  order conservation sleep_total sleep_rem sleep_cycle awake
##    <chr> <chr> <chr> <chr> <chr>              <dbl>     <dbl>       <dbl> <dbl>
##  1 Owl  Aotus omni  Prim <NA>                17         1.8      NA       7  
##  2 Grea Blar omni  Sori lc                  14.9       2.3       0.133   9.1
##  3 Cow   Bos   herbi Arti domesticated         4         0.7       0.667  20  
##  4 Dog   Canis carni Carn domesticated        10.1       2.9       0.333  13.9
##  5 Roe  Capr herbi Arti lc                   3        NA        NA      21  
##  6 Goat  Capri herbi Arti lc                   5.3       0.6      NA      18.7
##  7 Guin Cavis herbi Rode domesticated         9.4       0.8       0.217  14.6
##  8 Chin Chin herbi Rode domesticated        12.5       1.5       0.117  11.5
##  9 Star Cond omni  Sori lc                  10.3       2.2      NA      13.7
## 10 Afri Cric omni  Rode <NA>                 8.3       2        NA      15.7
## #  with 46 more rows, and 2 more variables: brainwt <dbl>, bodywt <dbl>

#4.All NAs in the column brainwt are replaced with the number 0, using replace_na(). (But think: should you ever actually do this in real data analysis? ..NO.)
#pipping in the dataset
msleep %>%
  #the Na are replaced with 0 in the brainwt column
  replace_na(list(brainwt= 0)) -> replace_na_0_brainwt

## replace_na: changed 27 values (33%) of 'brainwt' (27 fewer NA)

#showing the results
replace_na_0_brainwt

## # A tibble: 83 x 11
##    name  genus vore  order conservation sleep_total sleep_rem sleep_cycle awake
##    <chr> <chr> <chr> <chr> <chr>              <dbl>     <dbl>       <dbl> <dbl>
##  1 Chee Acin carni Carn lc                  12.1      NA        NA      11.9
##  2 Owl  Aotus omni  Prim <NA>                17         1.8      NA       7  
##  3 Moun Aplo herbi Rode nt                  14.4       2.4      NA       9.6
##  4 Grea Blar omni  Sori lc                  14.9       2.3       0.133   9.1
##  5 Cow   Bos   herbi Arti domesticated         4         0.7       0.667  20  
##  6 Thre Brad herbi Pilo <NA>                14.4       2.2       0.767   9.6
##  7 Nort Call carni Carn vu                   8.7       1.4       0.383  15.3
##  8 Vesp Calo <NA>  Rode <NA>                 7        NA        NA      17  
##  9 Dog   Canis carni Carn domesticated        10.1       2.9       0.333  13.9
## 10 Roe  Capr herbi Arti lc                   3        NA        NA      21  
## #  with 73 more rows, and 2 more variables: brainwt <dbl>, bodywt <dbl>
…
#show the variable
pima

## # A tibble: 752 x 9
##    npreg glucose   dbp  skin insulin   bmi pedigree   age diabetic
##    <dbl>   <dbl> <dbl> <dbl>   <dbl> <dbl>    <dbl> <dbl> <chr>   
##  1     6     148    72    35       0  33.6    0.627    50 Yes     
##  2     1      85    66    29       0  26.6    0.351    31 No      
##  3     8     183    64     0       0  23.3    0.672    32 Yes     
##  4     1      89    66    23      94  28.1    0.167    21 No      
##  5     0     137    40    35     168  43.1    2.29     33 Yes     
##  6     5     116    74     0       0  25.6    0.201    30 No      
##  7     3      78    50    32      88  31      0.248    26 Yes     
##  8    10     115     0     0       0  35.3    0.134    29 No      
##  9     2     197    70    45     543  30.5    0.158    53 Yes     
## 10     4     110    92     0       0  37.6    0.191    30 No      
## #  with 742 more rows
…
# wrangle
#pipped the data
pima %>%
  #Used mutate to added the glucose status. Use cae_when for multiply variables
  mutate(glucose_status= case_when(glucose <= 70 ~ "low", 
                                   glucose >70 & glucose <=120 ~ "average", 
                                   glucose >120 & glucose <=160 ~"above-average",
                                   glucose >160 ~"high")) -> new_column_glucose_status #new Variable

## mutate: new variable 'glucose_status' with 4 unique values and 0% NA

#show the variable
new_column_glucose_status

## # A tibble: 752 x 10
##    npreg glucose   dbp  skin insulin   bmi pedigree   age diabetic
##    <dbl>   <dbl> <dbl> <dbl>   <dbl> <dbl>    <dbl> <dbl> <chr>   
##  1     6     148    72    35       0  33.6    0.627    50 Yes     
##  2     1      85    66    29       0  26.6    0.351    31 No      
##  3     8     183    64     0       0  23.3    0.672    32 Yes     
##  4     1      89    66    23      94  28.1    0.167    21 No      
##  5     0     137    40    35     168  43.1    2.29     33 Yes     
##  6     5     116    74     0       0  25.6    0.201    30 No      
##  7     3      78    50    32      88  31      0.248    26 Yes     
##  8    10     115     0     0       0  35.3    0.134    29 No      
##  9     2     197    70    45     543  30.5    0.158    53 Yes     
## 10     4     110    92     0       0  37.6    0.191    30 No      
## #  with 742 more rows, and 1 more variable: glucose_status <chr>
…
Use if_else() and mutate() to create a new column called pregnant to say Yes if the individual ever was pregant, and No if the individual never had a pregnancy. Save the output for subsequent use.

#ifelse
#data set + pipe factor
pima %>%
  #making a new column from the pregnant column 
  mutate(pregnant= if_else(npreg > 0, "Yes", "No")) -> new_column_pregnant

## mutate: new variable 'pregnant' with 2 unique values and 0% NA

#showing the vaule
new_column_pregnant

## # A tibble: 752 x 10
##    npreg glucose   dbp  skin insulin   bmi pedigree   age diabetic pregnant
##    <dbl>   <dbl> <dbl> <dbl>   <dbl> <dbl>    <dbl> <dbl> <chr>    <chr>   
##  1     6     148    72    35       0  33.6    0.627    50 Yes      Yes     
##  2     1      85    66    29       0  26.6    0.351    31 No       Yes     
##  3     8     183    64     0       0  23.3    0.672    32 Yes      Yes     
##  4     1      89    66    23      94  28.1    0.167    21 No       Yes     
##  5     0     137    40    35     168  43.1    2.29     33 Yes      No      
##  6     5     116    74     0       0  25.6    0.201    30 No       Yes     
##  7     3      78    50    32      88  31      0.248    26 Yes      Yes     
##  8    10     115     0     0       0  35.3    0.134    29 No       Yes     
##  9     2     197    70    45     543  30.5    0.158    53 Yes      Yes     
## 10     4     110    92     0       0  37.6    0.191    30 No       Yes     
## #  with 742 more rows
…
  #delected the orginal diabetic column, + a new data set
  select(-diabetic)-> new_pima_part_5.6

## mutate: new variable 'Diabetics' with 2 unique values and 0% NA

## select: dropped one variable (diabetic)

#Show the variable
new_pima_part_5.6

## # A tibble: 752 x 9
##    npreg glucose   dbp  skin insulin   bmi pedigree   age Diabetics
##    <dbl>   <dbl> <dbl> <dbl>   <dbl> <dbl>    <dbl> <dbl> <lgl>    
##  1     6     148    72    35       0  33.6    0.627    50 TRUE     
##  2     1      85    66    29       0  26.6    0.351    31 FALSE    
##  3     8     183    64     0       0  23.3    0.672    32 TRUE     
##  4     1      89    66    23      94  28.1    0.167    21 FALSE    
##  5     0     137    40    35     168  43.1    2.29     33 TRUE     
##  6     5     116    74     0       0  25.6    0.201    30 FALSE    
##  7     3      78    50    32      88  31      0.248    26 TRUE     
##  8    10     115     0     0       0  35.3    0.134    29 FALSE    
##  9     2     197    70    45     543  30.5    0.158    53 TRUE     
## 10     4     110    92     0       0  37.6    0.191    30 FALSE    
## #  with 742 more rows
…
## mutate: new variable 'Diabetics' with 2 unique values and 0% NA

## select: dropped one variable (diabetic)

#showing the variable
new_pima_part_5.7

## # A tibble: 752 x 9
##    npreg glucose   dbp  skin insulin   bmi pedigree   age Diabetics
##    <dbl>   <dbl> <dbl> <dbl>   <dbl> <dbl>    <dbl> <dbl> <lgl>    
##  1     6     148    72    35       0  33.6    0.627    50 TRUE     
##  2     1      85    66    29       0  26.6    0.351    31 FALSE    
##  3     8     183    64     0       0  23.3    0.672    32 TRUE     
##  4     1      89    66    23      94  28.1    0.167    21 FALSE    
##  5     0     137    40    35     168  43.1    2.29     33 TRUE     
##  6     5     116    74     0       0  25.6    0.201    30 FALSE    
##  7     3      78    50    32      88  31      0.248    26 TRUE     
##  8    10     115     0     0       0  35.3    0.134    29 FALSE    
##  9     2     197    70    45     543  30.5    0.158    53 TRUE     
## 10     4     110    92     0       0  37.6    0.191    30 FALSE    
## #  with 742 more rows
…
