Logistic Regression
…
bmi

skin

Before you begin, modify the diabetic column so that Yes is a success and No is a failure. Rather than recoding as 1/0, instead lets just make the column a factor with levels ordered Yes, No! This will ensure Yes (has diabetes) is a success in the model.

## Re-factor the diabetic column
## It is OK to overwrite the original pima dataset and the original diabetic column!

pima$diabetic <- factor(pima$diabetic, levels = c("No", "Yes"))

## Show the output to prove to yourself that the factoring worked
pima

## # A tibble: 752 x 8
##    npreg glucose   dbp  skin insulin   bmi   age diabetic
##    <dbl>   <dbl> <dbl> <dbl>   <dbl> <dbl> <dbl> <fct>   
##  1     6     148    72    35       0  33.6    50 Yes     
##  2     1      85    66    29       0  26.6    31 No      
##  3     8     183    64     0       0  23.3    32 Yes     
##  4     1      89    66    23      94  28.1    21 No      
##  5     0     137    40    35     168  43.1    33 Yes     
##  6     5     116    74     0       0  25.6    30 No      
##  7     3      78    50    32      88  31      26 Yes     
##  8    10     115     0     0       0  35.3    29 No      
##  9     2     197    70    45     543  30.5    53 Yes     
## 10     4     110    92     0       0  37.6    30 No      
## #  with 742 more rows
…
